Place name,Addresses,Latitude-longitude information
3110,3110,"63.73272173602081, -68.45047951086957"
3111,3111,"63.73272173602081, -68.45047951086957"
3112,3112,"63.73272173602081, -68.45047951086957"
3113,3113,"63.73272173602081, -68.45047951086957"
3114,3114,"63.73272173602081, -68.45047951086957"
3115,3115,"63.73272173602081, -68.45047951086957"
3116,3116,"63.73272173602081, -68.45047951086957"
3102,3102,"63.731955741222365, -68.44882588768117"
3103,3103,"63.731955741222365, -68.44882588768117"
3104,3104,"63.731955741222365, -68.44882588768117"
3607,3607,"63.73195109882965, -68.46071130434783"
3608,3608,"63.73195109882965, -68.46025139039855"
"3042 a,b","3042 a,b","63.7305699869961, -68.44631961503623"
"3035 a,b,c,d","3035 a,b,c,d","63.73024734070221, -68.4474358106884"
3007 a,3007 a,"63.72930029258778, -68.45159053894928"
3007 b,3007 b,"63.72908210013004, -68.45140967391305"
"3054 a,b,c,d","3054 a,b,c,d","63.72898228868661, -68.44592687952898"
3062 &,3062 &,"63.72832074772432, -68.44735829710145"
3066 &,3066 &,"63.72816058517556, -68.44799390851449"
"3306 a,b","3306 a,b","63.72843216514955, -68.44312088768116"
3118,3118,"63.73237355656697, -68.44890856884058"
3101,3101,"63.73232249024707, -68.44739963768116"
3601,3601,"63.73224821196359, -68.45855125905797"
3606,3606,"63.731825754226264, -68.4597449682971"
3605,3605,"63.73179325747724, -68.45901117300724"
3602,3602,"63.73178397269181, -68.45684596014493"
3100,3100,"63.73166791287386, -68.4487638768116"
3600,3600,"63.73156578023407, -68.4573627173913"
3099,3099,"63.73152399869961, -68.44722910778985"
3109,3109,"63.73142186605982, -68.4447280027174"
3105,3105,"63.73139401170351, -68.44644363677537"
3098,3098,"63.73126866710013, -68.44847966032609"
3142,3142,"63.73118046163849, -68.44443345108697"
3107,3107,"63.73104118985696, -68.44562199275363"
3095,3095,"63.7309483420026, -68.44640229619566"
3097,3097,"63.730939057217164, -68.4475081567029"
3140,3140,"63.73086477893368, -68.44526026268116"
3037,3037,"63.73078585825748, -68.44824195199276"
3036,3036,"63.73078121586476, -68.44975605072464"
3144,3144,"63.73078121586476, -68.44402521286231"
3093,3093,"63.73076264629389, -68.4463816259058"
3141,3141,"63.73058623537061, -68.44353429347827"
3079,3079,"63.73058159297789, -68.45056735960145"
3040,3040,"63.730576950585174, -68.44912560688405"
3041,3041,"63.73056766579974, -68.44971471014493"
3138,3138,"63.730558381014305, -68.44501738677536"
3136,3136,"63.73043767880364, -68.44535844655798"
3039,3039,"63.73041910923277, -68.44746164855073"
3266,3266,"63.73035411573472, -68.44303303894928"
3134,3134,"63.730298407022104, -68.44586486865943"
3137,3137,"63.73022877113134, -68.4446143161232"
3274,3274,"63.73020555916775, -68.44235091938405"
3001,3001,"63.73018698959688, -68.45094459239131"
3038,3038,"63.73016842002601, -68.44892407155797"
3210,3210,"63.7301405656697, -68.44378233695653"
3033,3033,"63.730094141742526, -68.44795773550725"
3000,3000,"63.730066287386215, -68.44986973731883"
3133,3133,"63.73001986345904, -68.44537394927536"
3034,3034,"63.72998736671001, -68.44888273097827"
3003,3003,"63.72995951235371, -68.45103760869566"
3220,3220,"63.72994094278283, -68.44437660778986"
3044,3044,"63.72988987646294, -68.44549280344204"
3246,3246,"63.729885234070224, -68.44321907155798"
3031,3031,"63.72987130689207, -68.44759600543479"
3267,3267,"63.72986666449935, -68.44209254076087"
3002,3002,"63.72982488296489, -68.44939432065217"
3004,3004,"63.729704180754226, -68.4498749048913"
3005,3005,"63.72969953836151, -68.45106344655797"
3244,3244,"63.72969489596879, -68.44282633605073"
3032,3032,"63.72966239921977, -68.44884655797101"
3029,3029,"63.72964847204161, -68.44758050271739"
3268,3268,"63.72964847204161, -68.44148276721015"
3006,3006,"63.72959740572172, -68.44970954257246"
3222,3222,"63.72956490897269, -68.44479001358695"
3050,3050,"63.72954633940182, -68.44641779891305"
3007,3007,"63.72954633940182, -68.45109961956521"
3051,3051,"63.72954633940182, -68.44734796195652"
3242,3242,"63.729523127438235, -68.44256278985507"
3248,3248,"63.72951848504552, -68.44351879076088"
3030,3030,"63.72941635240572, -68.4490635960145"
3012,3012,"63.729411710013004, -68.45137866847826"
3272,3272,"63.72938849804942, -68.44080581521739"
3008,3008,"63.72937921326398, -68.44998342391304"
3226,3226,"63.72936064369311, -68.44440244565217"
3240,3240,"63.729346716514954, -68.44220622735507"
3228,3228,"63.7293049349805, -68.44377716938406"
3238,3238,"63.729114596879064, -68.44189617300725"
3027,3027,"63.72910995448635, -68.44866052536231"
3052,3052,"63.72910995448635, -68.44659349637682"
3200,3200,"63.72910995448635, -68.44555998188406"
3270,3270,"63.72908674252276, -68.44061978260869"
3010,3010,"63.72905888816645, -68.45018495923914"
3230,3230,"63.72902639141743, -68.44362730978261"
3053,3053,"63.72898925227568, -68.44804558423913"
3232,3232,"63.72895211313394, -68.44309504981884"
3201,3201,"63.72894282834851, -68.4452964356884"
3060,3060,"63.72892425877764, -68.44728595108695"
3009,3009,"63.72888711963589, -68.45193159873189"
3234,3234,"63.72884069570871, -68.4426299682971"
3305,3305,"63.72882212613784, -68.44476934329711"
3017,3017,"63.728817483745125, -68.45015395380435"
3025,3025,"63.72881284135241, -68.44905842844203"
3056,3056,"63.728784986996104, -68.44555998188406"
3236,3236,"63.72877570221066, -68.44211321105072"
3308,3308,"63.72870142392718, -68.44270748188406"
3058,3058,"63.72864571521457, -68.44525509510869"
3015,3015,"63.72861786085826, -68.45014361865942"
3310,3310,"63.728585364109236, -68.44220622735507"
3303,3303,"63.72851572821847, -68.44475384057971"
3011,3011,"63.72846466189857, -68.45142517663044"
3312,3312,"63.728441449934984, -68.44173597826087"
3304,3304,"63.72834860208063, -68.44359113677537"
3013,3013,"63.72824646944083, -68.45076889492753"
3064,3064,"63.7282371846554, -68.44738413496377"
3302,3302,"63.72818147594278, -68.4439425317029"
3068,3068,"63.728093270481146, -68.44802491394928"
3014,3014,"63.728079343302994, -68.45004026721014"
3300,3300,"63.72804220416125, -68.4447280027174"
3070,3070,"63.727912217165155, -68.44735312952899"
3069,3069,"63.727763660598185, -68.44970954257246"
3071,3071,"63.727698667100135, -68.4481075951087"
3407,3407,"63.72736441482445, -68.44727561594203"
3400,3400,"63.72734584525358, -68.44938398550725"
3409,3409,"63.72734584525358, -68.44682603713768"
3411,3411,"63.727290136540965, -68.44636612318841"
3404,3404,"63.72712765279584, -68.44875870923913"
3406,3406,"63.726974453836156, -68.44820061141304"
3408,3408,"63.726895533159954, -68.44758050271739"
3410,3410,"63.72685375162549, -68.44704824275362"
3412,3412,"63.72681661248375, -68.44646947463768"
